{
  "$schema": "http://json.schemastore.org/launchsettings.json",
  "profiles": {
    "BasketCase.Api": {
      "commandName": "Project",
      "launchBrowser": true,
      "environmentVariables": {
        "ASPNETCORE_ENVIRONMENT": "Development"
      },
      "applicationUrl": "http://localhost:5000"
    }
  }
}